19.8588
19.5875
19.5538
19.6313
19.615
19.5487
19.6438
19.5525
19.6638
19.6
19.5263
19.585
19.5963
19.7294
19.7947
19.8234
19.7483
19.853
20.789
21.2066
21.3646
21.5991
21.3003
23.9644
24.0793
24.2791
24.2833
24.2659
24.2752
24.2997
